579827.11145020 4690413.77029419 462.25830078 68 73 70 4793.342773 2.745003 0.000000
579827.12597656 4690413.53027344 463.00161743 68 73 71 5196.432617 1.994938 0.000000
579829.10412598 4690413.68222046 463.00418091 69 74 69 5135.111328 2.520041 0.000000
579831.39440918 4690413.18035889 463.89999390 68 73 69 6102.185059 1.328289 0.000000
579834.87377930 4690413.00732422 462.97976685 74 79 77 5381.488770 4.231851 0.000000
579833.18188477 4690413.39642334 463.18688965 71 77 73 5315.856934 4.157864 0.000000
579837.51525879 4690413.35549927 461.15148926 74 78 76 5161.149902 1.752503 0.000000
579836.89709473 4690413.07415771 462.38708496 71 76 75 5666.658691 3.947226 0.000000
579839.07287598 4690413.08633423 460.51245117 71 76 74 5489.000000 2.447209 0.000000
579825.08483887 4690413.78652954 464.07391357 65 70 71 6045.782715 1.306093 0.000000
579824.75366211 4690414.19393921 463.05514526 61 66 69 5704.030273 3.436007 0.000000
579826.94665527 4690415.16534424 459.81332397 72 78 74 4165.533203 2.487102 0.000000
579825.28369141 4690418.32626343 453.95748901 50 53 59 3310.500000 2.120119 0.000000
579827.50427246 4690414.63516235 462.65667725 71 77 73 5202.394043 1.613307 0.000000
579829.35766602 4690415.07333374 462.72000122 76 82 76 5598.256348 1.773174 0.000000
579831.33874512 4690413.67077637 462.91210938 73 79 73 5176.894531 3.457517 0.000000
579829.03796387 4690415.39434814 462.09027100 79 85 79 5558.102539 2.185920 0.000000
579826.63305664 4690417.81048584 457.16299438 58 61 62 4788.549805 4.449501 0.000000
579827.36853027 4690417.23348999 459.04299927 64 69 66 5149.799805 1.774291 0.000000
579829.65246582 4690416.78512573 462.53811646 75 81 75 6328.729492 1.374329 0.000000
579828.33837891 4690417.09390259 459.17776489 71 76 71 4056.500000 1.768406 0.000000
579830.86706543 4690416.81796265 462.26522827 75 81 75 5922.454590 1.716984 0.000000
579833.06347656 4690415.15020752 462.60281372 81 88 82 5676.695801 2.847694 0.000000
579833.11926270 4690415.55224609 462.07949829 84 91 85 5197.825195 2.006050 0.000000
579831.06091309 4690415.17889404 462.47198486 81 88 81 5551.422363 2.349607 0.000000
579833.16137695 4690414.05758667 461.78759766 80 86 80 4053.758545 2.307418 0.000000
579834.95275879 4690415.30209351 461.65814209 77 84 78 5140.325684 2.506480 0.000000
579832.96704102 4690416.71408081 462.27523804 78 85 79 6037.340820 1.961275 0.000000
579834.87634277 4690416.62292480 461.67559814 78 85 79 5508.561035 2.467395 0.000000
579833.00903320 4690416.68682861 462.38272095 78 85 79 6064.704590 1.898070 0.000000
579834.72106934 4690416.60763550 462.05709839 79 87 80 5726.447266 1.756326 0.000000
579836.78564453 4690414.97128296 461.98590088 73 79 75 5884.641113 1.998588 0.000000
579839.14062500 4690414.80313110 459.38562012 71 77 75 4310.625000 2.994356 0.000000
579838.59533691 4690414.86416626 460.42721558 68 73 72 5003.861328 2.800142 0.000000
579837.49548340 4690415.05551147 460.46517944 70 75 73 4966.241211 1.240673 0.000000
579838.63317871 4690416.50161743 460.23934937 77 84 80 4921.548340 3.565922 0.000000
579839.58056641 4690417.10501099 455.40625000 86 95 90 2625.812500 2.553961 0.000000
579837.47753906 4690416.48321533 459.80929565 78 85 81 4139.571289 2.505764 0.000000
579835.39111328 4690415.75109863 447.07888794 73 82 75 3002.777832 2.298943 0.000000
579825.48120117 4690418.62188721 458.20437622 67 72 71 6079.875000 2.051100 0.000000
579824.81530762 4690419.78134155 454.13067627 73 80 77 4089.199951 3.177193 0.000000
579825.56262207 4690421.28869629 456.50839233 79 87 79 4926.387207 3.608833 0.000000
579825.69140625 4690421.42089844 457.76910400 79 87 79 5611.909180 1.535908 0.000000
579827.34838867 4690419.40609741 458.21112061 76 82 77 5809.000000 2.324032 0.000000
579825.91455078 4690419.29818726 455.18637085 71 77 76 3655.454590 1.363696 0.000000
579830.19641113 4690418.34118652 462.93359375 78 84 80 7534.200195 0.593495 0.000000
579830.80883789 4690418.33090210 462.56878662 77 83 79 6960.909180 0.983350 0.000000
579828.66857910 4690419.26858521 458.59213257 80 86 81 4583.500000 2.330474 0.000000
579829.72204590 4690418.53915405 461.71542358 77 83 79 6767.799805 4.229928 0.000000
579829.82812500 4690420.62606812 460.84698486 75 81 76 5545.394043 4.689451 0.000000
579828.94433594 4690421.49130249 457.57998657 87 94 86 3766.173828 2.642261 0.000000
579831.01953125 4690420.21783447 462.54260254 68 74 71 6757.782715 0.915176 0.000000
579835.24145508 4690419.06875610 462.26275635 76 85 78 6767.524902 1.312150 0.000000
579830.99926758 4690421.56741333 459.28259277 86 93 86 4182.592773 3.268575 0.000000
579833.08044434 4690421.09552002 461.70574951 77 83 78 6060.659668 3.552199 0.000000
579832.78955078 4690421.61080933 459.73840332 83 89 84 4271.560059 3.021333 0.000000
579835.17187500 4690421.03204346 461.59796143 79 86 81 5930.681641 3.170875 0.000000
579836.51171875 4690419.27890015 461.70977783 76 85 78 6192.111328 3.261393 0.000000
579836.26293945 4690419.34527588 462.32025146 77 86 79 6705.473633 1.398924 0.000000
579838.01184082 4690418.90188599 457.02624512 74 84 79 2892.937500 2.533761 0.000000
579836.60473633 4690416.44940186 462.02117920 79 87 82 6109.117676 1.643552 0.000000
579835.69665527 4690421.14999390 451.36666870 84 93 87 2548.333252 6.699289 0.000000
579836.87084961 4690421.38183594 461.45919800 78 86 80 5658.367188 3.537440 0.000000
579835.31970215 4690420.82827759 462.34542847 78 85 80 6810.771484 1.174985 0.000000
579835.32214355 4690421.11715698 457.84429932 83 89 84 2308.857178 1.930453 0.000000
579835.14428711 4690420.95571899 459.78894043 83 90 85 3895.464355 3.247660 0.000000
579838.65637207 4690420.68948364 444.92999268 80 89 84 4616.000000 1.146389 0.000000
579838.59570313 4690421.41500854 461.62713623 82 91 84 5120.856934 1.365206 0.000000
579838.70739746 4690421.44589233 460.70794678 83 92 85 4693.615234 3.309529 0.000000
579838.52832031 4690419.39309692 459.07138062 85 95 89 3698.724121 3.216026 0.000000
579839.20043945 4690421.11373901 457.44915771 85 95 89 2994.500000 1.427541 0.000000
579826.68994141 4690422.68707275 455.81765747 96 106 93 3675.411865 0.873842 0.000000
579825.12414551 4690423.23529053 456.96029663 90 101 89 5180.411621 3.683585 0.000000
579826.72668457 4690423.89190674 459.57000732 87 96 88 7361.143066 0.797448 0.000000
579825.40417480 4690423.73205566 458.24911499 87 97 87 6046.146973 2.711261 0.000000
579824.81750488 4690422.65206909 455.22125244 94 104 91 4025.541748 2.813678 0.000000
579824.88867188 4690424.22103882 447.51000977 83 93 84 6936.551758 4.081931 0.000000
579825.63647461 4690426.71911621 458.60156250 82 93 86 6408.022461 2.916404 0.000000
579825.45043945 4690424.81854248 458.60781860 85 94 85 6317.609863 2.568944 0.000000
579825.56860352 4690425.20758057 459.51516724 83 93 85 7167.482910 0.694059 0.000000
579826.74902344 4690425.20031738 459.64935303 83 93 85 6934.128906 0.939522 0.000000
579829.27258301 4690423.25479126 457.19738770 95 103 94 3376.130371 2.528558 0.000000
579830.87683105 4690422.75726318 457.87591553 92 100 92 3075.409180 2.123315 0.000000
579829.09313965 4690423.59249878 458.81906128 91 99 91 4683.906250 4.083702 0.000000
579831.57702637 4690422.87188721 460.92892456 87 94 88 5037.000000 3.531156 0.000000
579830.50000000 4690424.50637817 457.47955322 83 90 83 3286.045410 2.362341 0.000000
579830.47998047 4690424.19000244 453.30999756 63 71 67 1715.500000 2.788900 0.000000
579831.02221680 4690422.88226318 459.16903687 90 98 90 4035.032227 4.044673 0.000000
579831.50634766 4690424.80578613 461.18551636 76 83 79 5175.263184 3.313477 0.000000
579828.76086426 4690426.78637695 457.50183105 83 92 85 4271.090820 1.832988 0.000000
579829.74365234 4690424.94818115 455.52182007 82 90 83 2577.272705 1.734560 0.000000
579828.85974121 4690424.64971924 458.65676880 87 95 87 4848.107910 3.901676 0.000000
579833.14294434 4690425.05450439 462.36074829 78 84 81 5700.549805 0.927417 0.000000
579832.75146484 4690422.80587769 459.83352661 84 91 86 4121.617676 3.148899 0.000000
579831.64868164 4690423.20999146 462.37362671 83 90 85 6022.409180 0.594178 0.000000
579833.08984375 4690422.78381348 461.49273682 83 90 85 5461.436523 3.226834 0.000000
579835.19995117 4690421.17001343 453.80334473 60 67 62 2086.666748 3.141756 0.000000
579833.30395508 4690423.02877808 462.39901733 82 89 85 6223.683105 1.019414 0.000000
579835.02233887 4690422.74572754 462.28643799 80 87 82 6256.071289 1.429999 0.000000
579831.66418457 4690425.16616821 462.29229736 73 80 76 5788.077148 0.798218 0.000000
579834.97070313 4690425.02575684 462.29800415 77 83 80 5197.899902 1.566096 0.000000
579833.06823730 4690424.85018921 461.65020752 78 84 80 5300.859863 2.828430 0.000000
579834.88745117 4690424.86917114 461.40936279 76 82 79 4620.000000 3.343481 0.000000
579836.72961426 4690422.76446533 462.18362427 79 87 82 5399.617188 1.624444 0.000000
579836.88928223 4690422.73931885 461.30484009 79 86 81 4845.655273 3.229911 0.000000
579837.32824707 4690422.81640625 459.58795166 78 85 80 3449.487061 3.001283 0.000000
579838.60510254 4690422.62213135 461.85757446 80 88 82 4545.575684 1.622873 0.000000
579838.95678711 4690422.78076172 459.17349243 79 87 82 3269.949951 3.115128 0.000000
579837.48352051 4690424.89053345 459.68026733 78 85 82 3567.675781 2.453943 0.000000
579836.99523926 4690426.72396851 461.23678589 72 82 79 4483.943359 2.534377 0.000000
579837.08728027 4690424.87945557 461.24856567 79 86 83 4153.393066 3.101687 0.000000
579838.55615234 4690424.77764893 461.97558594 77 86 82 4013.558838 1.876619 0.000000
579838.18994141 4690424.73126221 463.22811890 78 89 84 4115.812500 0.645190 0.000000
579838.56005859 4690425.54501343 450.38000488 82 92 88 2076.500000 1.254400 0.000000
579839.11682129 4690424.81771851 459.17749023 75 83 79 3125.909180 3.065892 0.000000
579836.97338867 4690426.62384033 461.98468018 72 82 79 4790.000000 1.520493 0.000000
579838.51770020 4690422.71652222 460.83605957 80 87 82 4041.372070 2.811159 0.000000
579838.75170898 4690424.79425049 460.75085449 76 85 81 3530.893555 2.825791 0.000000
579839.21496582 4690425.30249023 451.63250732 83 93 88 1956.000000 3.021569 0.000000
579825.74377441 4690426.61093140 459.58123779 80 90 84 7073.062500 0.606111 0.000000
579828.65356445 4690426.56304932 458.88027954 82 90 84 5240.277832 3.309086 0.000000
579829.29003906 4690427.00869751 460.83868408 75 83 79 6112.973633 3.184290 0.000000
579829.56848145 4690426.83184814 461.70184326 73 81 78 6617.000000 1.737082 0.000000
579831.48645020 4690426.65805054 462.20870972 72 79 77 5870.064453 1.366644 0.000000
579834.92956543 4690426.50347900 461.18060303 74 82 79 4214.897949 2.788871 0.000000
579833.02368164 4690426.50265503 461.67980957 73 80 77 5189.081543 2.749079 0.000000
579834.96264648 4690426.42904663 461.92190552 76 84 81 4529.000000 1.670377 0.000000
579837.51708984 4690426.59286499 457.64285278 75 85 81 2502.214355 1.780063 0.000000
579824.83837891 4690417.52767944 447.86431885 53 58 61 5831.766602 0.796378 0.000000
579835.21325684 4690415.23147583 446.12469482 72 79 73 5655.558594 1.093166 1.000000
579824.87792969 4690419.12588501 448.03646851 64 70 69 5960.588379 2.051523 0.000000
579825.01660156 4690420.83456421 447.92657471 70 78 72 5726.171387 2.888371 0.000000
579834.54260254 4690420.76889038 445.40481567 83 90 84 5554.000000 0.485758 0.000000
579825.09460449 4690423.12152100 447.20907593 87 97 87 6125.394043 1.666275 0.000000
579830.93566895 4690413.57534790 446.81332397 74 81 74 5486.633301 0.165536 0.000000
579824.48803711 4690415.29360962 447.91799927 64 68 72 5070.879883 0.238272 0.000000
579829.17370605 4690416.76519775 446.79998779 73 79 73 7168.740723 0.200044 0.000000
579831.04040527 4690416.67828369 446.42276001 78 84 78 6985.655273 0.326717 0.000000
579830.92346191 4690415.03414917 446.67932129 77 84 77 6289.000000 0.200613 0.000000
579825.25195313 4690420.77966309 447.44580078 68 76 71 6032.064453 1.185863 0.000000
579827.04809570 4690419.07907104 447.14282227 74 80 76 6660.656250 0.907589 0.000000
579829.11999512 4690419.21249390 446.44143677 78 83 78 7452.928711 0.291248 0.000000
579829.04431152 4690420.49957275 446.27087402 72 77 72 7130.000000 0.240156 0.000000
579831.37963867 4690420.51666260 445.80166626 81 87 82 8112.625000 0.088447 0.000000
579833.50634766 4690420.71633911 445.46334839 84 90 85 6136.866699 0.182469 0.000000
579825.05566406 4690424.50134277 446.77066040 84 95 86 6815.666504 1.657459 0.000000
579826.13696289 4690424.43826294 446.68652344 85 96 87 5982.304199 1.866171 0.000000
579833.18322754 4690422.51251221 445.26785278 83 90 84 5695.893066 0.238338 0.000000
579834.76037598 4690422.74713135 444.99963379 79 84 80 4727.893066 0.260168 0.000000
579826.61694336 4690420.76165771 447.01300049 71 78 72 6700.066895 1.014141 0.000000
579830.20336914 4690427.07998657 447.37332153 71 78 77 3029.666748 3.399022 0.000000
579825.42028809 4690413.37969971 462.41967773 68 72 72 4823.187500 3.233872 0.000000
579825.04333496 4690414.32833862 459.84249878 63 68 69 3641.750000 2.564935 0.000000
579830.04272461 4690413.61862183 447.00909424 75 82 75 4875.772949 0.098426 0.000000
579827.08410645 4690413.22827148 463.58758545 67 72 70 5600.379395 0.779087 0.000000
579828.79809570 4690414.04678345 462.08901978 73 78 73 4376.838867 2.448505 0.000000
579832.99780273 4690413.36306763 446.50527954 68 75 71 5965.027832 0.180392 0.000000
579834.89111328 4690413.29028320 446.11242676 66 72 69 6550.648438 0.235678 0.000000
579836.07641602 4690413.25695801 445.91909790 67 73 71 6001.303223 0.275329 0.000000
579835.01171875 4690413.65206909 461.75177002 77 82 79 4588.941406 2.033979 0.000000
579836.07641602 4690413.25695801 445.91909790 67 73 71 6001.303223 0.275329 0.000000
579838.48571777 4690413.40570068 445.48678589 76 82 80 5144.500000 0.269579 0.000000
579824.71350098 4690415.36236572 459.77587891 61 65 67 4334.058594 2.302530 0.000000
579824.48803711 4690415.29360962 447.91799927 64 68 72 5070.879883 0.238272 0.000000
579825.24584961 4690414.57067871 461.47897339 63 68 69 4666.172363 3.392864 0.000000
579824.91760254 4690417.45379639 447.77069092 54 58 61 5827.379395 0.560765 0.000000
579827.48608398 4690414.82333374 461.89944458 74 79 75 5297.250000 2.686605 0.000000
579827.11755371 4690415.63583374 447.43832397 81 88 84 4974.666504 0.373939 0.000000
579829.62084961 4690415.27584839 446.92291260 81 88 80 5784.791504 0.115212 0.000000
579830.93615723 4690415.52691650 462.00024414 82 89 82 5214.095215 1.933917 0.000000
579827.03356934 4690416.99420166 447.39517212 69 75 73 6164.806641 0.615322 0.000000
579832.82934570 4690414.84481812 446.41757202 74 81 74 5912.413574 0.234446 0.000000
579834.80432129 4690414.79956055 463.49520874 79 86 80 6820.478027 0.867955 0.000000
579833.12719727 4690414.93762207 460.05142212 81 88 82 3660.285645 2.534212 0.000000
579833.24267578 4690416.71432495 446.08532715 78 86 79 5897.133301 0.313785 0.000000
579836.63928223 4690415.17483521 445.63931274 70 76 73 5112.448242 0.367406 0.000000
579838.05786133 4690414.83651733 461.49346924 69 74 72 5605.043457 1.016136 0.000000
579837.12109375 4690415.16772461 461.33840942 72 78 74 5674.204590 2.439091 0.000000
579838.45812988 4690414.95462036 445.30538940 76 82 80 4709.077148 0.274333 0.000000
579834.95263672 4690416.62902832 445.75259399 77 84 78 5891.419434 0.291497 0.000000
579836.94555664 4690416.52124023 461.37051392 77 84 79 5826.274902 2.911355 0.000000
579835.07971191 4690416.67395020 445.98486328 77 85 79 5665.666504 1.151280 0.000000
579836.60144043 4690416.49591064 445.51998901 73 80 75 5707.444336 0.417793 0.000000
579838.59240723 4690416.54284668 445.14428711 77 83 80 5592.476074 0.359244 0.000000
579825.03002930 4690418.95709229 447.70001221 63 69 69 6166.580566 0.921710 0.000000
579831.37963867 4690420.51666260 445.80166626 81 87 82 8112.625000 0.088447 0.000000
579833.15209961 4690419.14105225 462.17480469 77 84 79 6537.562500 2.695542 0.000000
579831.05786133 4690419.41143799 446.01464844 83 89 83 7872.106934 0.219218 0.000000
579833.35034180 4690419.45703125 445.68481445 84 91 85 6805.000000 0.152943 0.000000
579834.90319824 4690418.96279907 445.46881104 81 88 83 6400.040039 0.126371 0.000000
579834.44189453 4690420.79998779 445.29730225 82 89 84 5651.846191 0.192381 0.000000
579838.58898926 4690419.22650146 444.90051270 77 86 81 4948.049805 0.501765 0.000000
579839.29357910 4690418.75784302 455.62713623 83 93 87 2497.857178 2.843792 0.000000
579839.03723145 4690416.73251343 458.84970093 82 90 86 3774.468750 2.978647 0.000000
579836.58349609 4690421.05807495 445.04461670 78 85 80 4489.115234 0.526956 0.000000
579836.56311035 4690421.17395020 462.28683472 78 86 80 6311.052734 1.359085 0.000000
579839.15405273 4690421.35281372 458.88256836 85 94 88 3451.025635 3.013358 0.000000
579839.15100098 4690418.79382324 456.72857666 83 92 87 3038.238037 2.726279 0.000000
579836.76245117 4690420.88500977 448.47250366 86 96 89 2874.250000 3.095569 0.000000
579838.73950195 4690420.73001099 444.74832153 79 88 83 4705.222168 0.583025 0.000000
579824.95422363 4690423.01055908 447.60916138 88 98 88 5822.250000 3.290924 0.000000
579826.85485840 4690423.50213623 458.40362549 91 100 90 6156.394043 2.957411 0.000000
579826.23583984 4690422.81805420 446.90353394 86 95 86 6114.290527 1.542378 0.000000
579826.65527344 4690423.16033936 457.19100952 93 104 92 5136.700195 3.091502 0.000000
579826.87597656 4690424.49771118 457.41400146 90 100 89 5309.228516 3.031413 0.000000
579828.89074707 4690424.44705200 457.19815063 91 99 90 3919.370361 2.386282 0.000000
579827.01330566 4690425.00451660 458.63784790 86 95 87 6138.476074 2.746883 0.000000
579831.97900391 4690425.18682861 445.05895996 82 89 84 5627.263184 0.191441 0.000000
579828.45800781 4690424.91534424 445.71398926 86 95 88 4064.933350 0.270824 0.000000
579832.82434082 4690424.60070801 459.81356812 78 85 81 4389.928711 3.555566 0.000000
579833.41467285 4690424.84307861 444.80691528 80 86 83 5179.500000 0.160952 0.000000
579834.91394043 4690425.81347656 444.43695068 79 85 83 4252.913086 0.127430 0.000000
579832.91503906 4690426.02200317 444.76000977 75 81 78 4547.700195 0.213110 0.000000
579834.75964355 4690425.00125122 444.59155273 80 86 83 4691.812500 0.200576 0.000000
579835.07409668 4690422.54000854 460.00094604 80 86 82 3809.187500 2.484658 0.000000
579834.90466309 4690422.63812256 461.40472412 80 86 81 5325.622559 3.392538 0.000000
579836.90698242 4690422.75399780 444.78665161 78 85 81 3760.133301 0.585509 0.000000
579838.66516113 4690423.17630005 444.44223022 82 89 85 3821.222168 0.632699 0.000000
579839.25854492 4690424.86889648 457.86889648 74 83 79 2577.037109 2.095580 0.000000
579836.69555664 4690424.96862793 444.32412720 83 90 87 3817.137939 0.173583 0.000000
579836.81726074 4690424.89654541 463.17691040 78 87 82 4621.115234 0.457444 0.000000
579838.39331055 4690425.10958862 444.09542847 86 94 90 3895.083252 0.200508 0.000000
579838.96679688 4690423.10272217 457.79727173 79 86 81 2648.409180 1.239174 0.000000
579826.85681152 4690426.83596802 458.68041992 82 92 86 6240.319336 2.837945 0.000000
579826.60778809 4690426.61364746 445.89498901 86 96 90 5452.090820 0.473898 0.000000
579826.71997070 4690427.09558105 457.82559204 84 95 88 5703.293945 2.263801 0.000000
579828.69995117 4690426.66894531 445.45578003 79 88 83 4077.263184 0.208814 0.000000
579828.83300781 4690426.62649536 445.68200684 78 87 83 3975.699951 1.170626 0.000000
579831.47949219 4690426.24301147 445.02551270 77 84 81 4445.350098 0.216125 0.000000
579833.02954102 4690426.45928955 462.14184570 75 82 79 5561.790527 1.323815 0.000000
579832.82080078 4690426.85665894 457.12750244 63 72 68 2227.000000 2.036852 0.000000
579833.23864746 4690426.79199219 459.64801025 75 83 80 3880.466553 4.068810 0.000000
579837.01135254 4690426.05728149 444.12316895 78 85 84 3951.000000 0.192222 0.000000
579839.67700195 4690425.65798950 455.35998535 69 78 75 2570.199951 4.434180 0.000000
579836.92456055 4690426.04998779 463.17749023 72 82 78 4490.500000 0.527019 0.000000
579838.75085449 4690426.16439819 443.85839844 76 85 84 4011.399902 0.300629 0.000000
